{"edges": [{"id": 0,
   "source": "DVTV.cz",
   "target": "tydenikrespekt",
   "weight": 280.0},
  {"id": 1, "source": "DVTV.cz", "target": "reflexcz", "weight": 124.0},
  {"id": 2, "source": "DVTV.cz", "target": "iDNES.cz", "weight": 125.0},
  {"id": 3, "source": "DVTV.cz", "target": "reportermagazin", "weight": 183.0},
  {"id": 4, "source": "DVTV.cz", "target": "ihned.cz", "weight": 216.0},
  {"id": 5, "source": "DVTV.cz", "target": "CT24.cz", "weight": 178.0},
  {"id": 6, "source": "DVTV.cz", "target": "Aktualne.cz", "weight": 223.0},
  {"id": 8, "source": "DVTV.cz", "target": "Novinky.cz", "weight": 78.0},
  {"id": 12, "source": "DVTV.cz", "target": "denikecho24", "weight": 146.0},
  {"id": 13, "source": "DVTV.cz", "target": "A2larm", "weight": 80.0},
  {"id": 14, "source": "DVTV.cz", "target": "radiozurnal", "weight": 117.0},
  {"id": 16,
   "source": "DVTV.cz",
   "target": "Svobodné fórum",
   "weight": 110.0},
  {"id": 17, "source": "DVTV.cz", "target": "neovlivnicz", "weight": 146.0},
  {"id": 22, "source": "DVTV.cz", "target": "lidovky.cz", "weight": 64.0},
  {"id": 27,
   "source": "tydenikrespekt",
   "target": "reflexcz",
   "weight": 156.0},
  {"id": 28,
   "source": "tydenikrespekt",
   "target": "iDNES.cz",
   "weight": 108.0},
  {"id": 29,
   "source": "tydenikrespekt",
   "target": "reportermagazin",
   "weight": 236.0},
  {"id": 30,
   "source": "tydenikrespekt",
   "target": "ihned.cz",
   "weight": 285.0},
  {"id": 31, "source": "tydenikrespekt", "target": "CT24.cz", "weight": 162.0},
  {"id": 32,
   "source": "tydenikrespekt",
   "target": "Aktualne.cz",
   "weight": 244.0},
  {"id": 38,
   "source": "tydenikrespekt",
   "target": "denikecho24",
   "weight": 194.0},
  {"id": 39,
   "source": "tydenikrespekt",
   "target": "A2larm",
   "weight": 149.0},
  {"id": 40,
   "source": "tydenikrespekt",
   "target": "radiozurnal",
   "weight": 91.0},
  {"id": 42,
   "source": "tydenikrespekt",
   "target": "Svobodné fórum",
   "weight": 114.0},
  {"id": 43,
   "source": "tydenikrespekt",
   "target": "neovlivnicz",
   "weight": 168.0},
  {"id": 45, "source": "tydenikrespekt", "target": "tyden", "weight": 80.0},
  {"id": 47,
   "source": "tydenikrespekt",
   "target": "DReferendum",
   "weight": 89.0},
  {"id": 48,
   "source": "tydenikrespekt",
   "target": "lidovky.cz",
   "weight": 78.0},
  {"id": 53, "source": "reflexcz", "target": "iDNES.cz", "weight": 211.0},
  {"id": 54,
   "source": "reflexcz",
   "target": "reportermagazin",
   "weight": 108.0},
  {"id": 55, "source": "reflexcz", "target": "ihned.cz", "weight": 203.0},
  {"id": 56, "source": "reflexcz", "target": "CT24.cz", "weight": 176.0},
  {"id": 57, "source": "reflexcz", "target": "Aktualne.cz", "weight": 146.0},
  {"id": 59, "source": "reflexcz", "target": "Novinky.cz", "weight": 103.0},
  {"id": 62,
   "source": "reflexcz",
   "target": "parlamentnilisty.cz",
   "weight": 92.0},
  {"id": 63, "source": "reflexcz", "target": "denikecho24", "weight": 178.0},
  {"id": 65, "source": "reflexcz", "target": "radiozurnal", "weight": 95.0},
  {"id": 67,
   "source": "reflexcz",
   "target": "Svobodné fórum",
   "weight": 145.0},
  {"id": 68, "source": "reflexcz", "target": "neovlivnicz", "weight": 90.0},
  {"id": 69, "source": "reflexcz", "target": "EuroZpravy.cz", "weight": 90.0},
  {"id": 70, "source": "reflexcz", "target": "tyden", "weight": 155.0},
  {"id": 78,
   "source": "iDNES.cz",
   "target": "reportermagazin",
   "weight": 73.0},
  {"id": 79, "source": "iDNES.cz", "target": "ihned.cz", "weight": 190.0},
  {"id": 80, "source": "iDNES.cz", "target": "CT24.cz", "weight": 275.0},
  {"id": 81, "source": "iDNES.cz", "target": "Aktualne.cz", "weight": 188.0},
  {"id": 82, "source": "iDNES.cz", "target": "Blesk.cz", "weight": 85.0},
  {"id": 83, "source": "iDNES.cz", "target": "Novinky.cz", "weight": 186.0},
  {"id": 85, "source": "iDNES.cz", "target": "tn.nova", "weight": 142.0},
  {"id": 86,
   "source": "iDNES.cz",
   "target": "parlamentnilisty.cz",
   "weight": 113.0},
  {"id": 87, "source": "iDNES.cz", "target": "denikecho24", "weight": 120.0},
  {"id": 89, "source": "iDNES.cz", "target": "radiozurnal", "weight": 69.0},
  {"id": 91,
   "source": "iDNES.cz",
   "target": "Svobodné fórum",
   "weight": 71.0},
  {"id": 93, "source": "iDNES.cz", "target": "EuroZpravy.cz", "weight": 109.0},
  {"id": 94, "source": "iDNES.cz", "target": "tyden", "weight": 130.0},
  {"id": 95, "source": "iDNES.cz", "target": "denikE15", "weight": 63.0},
  {"id": 102,
   "source": "reportermagazin",
   "target": "ihned.cz",
   "weight": 167.0},
  {"id": 103,
   "source": "reportermagazin",
   "target": "CT24.cz",
   "weight": 106.0},
  {"id": 104,
   "source": "reportermagazin",
   "target": "Aktualne.cz",
   "weight": 138.0},
  {"id": 110,
   "source": "reportermagazin",
   "target": "denikecho24",
   "weight": 183.0},
  {"id": 111,
   "source": "reportermagazin",
   "target": "A2larm",
   "weight": 76.0},
  {"id": 112,
   "source": "reportermagazin",
   "target": "radiozurnal",
   "weight": 81.0},
  {"id": 114,
   "source": "reportermagazin",
   "target": "Svobodné fórum",
   "weight": 130.0},
  {"id": 115,
   "source": "reportermagazin",
   "target": "neovlivnicz",
   "weight": 192.0},
  {"id": 117, "source": "reportermagazin", "target": "tyden", "weight": 64.0},
  {"id": 119,
   "source": "reportermagazin",
   "target": "DReferendum",
   "weight": 66.0},
  {"id": 120,
   "source": "reportermagazin",
   "target": "lidovky.cz",
   "weight": 63.0},
  {"id": 125, "source": "ihned.cz", "target": "CT24.cz", "weight": 224.0},
  {"id": 126, "source": "ihned.cz", "target": "Aktualne.cz", "weight": 254.0},
  {"id": 127, "source": "ihned.cz", "target": "Blesk.cz", "weight": 86.0},
  {"id": 128, "source": "ihned.cz", "target": "Novinky.cz", "weight": 203.0},
  {"id": 132, "source": "ihned.cz", "target": "denikecho24", "weight": 165.0},
  {"id": 133,
   "source": "ihned.cz",
   "target": "A2larm",
   "weight": 75.0},
  {"id": 134, "source": "ihned.cz", "target": "radiozurnal", "weight": 101.0},
  {"id": 136,
   "source": "ihned.cz",
   "target": "Svobodné fórum",
   "weight": 87.0},
  {"id": 137, "source": "ihned.cz", "target": "neovlivnicz", "weight": 140.0},
  {"id": 139, "source": "ihned.cz", "target": "tyden", "weight": 107.0},
  {"id": 140, "source": "ihned.cz", "target": "denikE15", "weight": 90.0},
  {"id": 142, "source": "ihned.cz", "target": "lidovky.cz", "weight": 80.0},
  {"id": 147, "source": "CT24.cz", "target": "Aktualne.cz", "weight": 190.0},
  {"id": 149, "source": "CT24.cz", "target": "Novinky.cz", "weight": 122.0},
  {"id": 151, "source": "CT24.cz", "target": "tn.nova", "weight": 88.0},
  {"id": 152,
   "source": "CT24.cz",
   "target": "parlamentnilisty.cz",
   "weight": 78.0},
  {"id": 153, "source": "CT24.cz", "target": "denikecho24", "weight": 125.0},
  {"id": 155, "source": "CT24.cz", "target": "radiozurnal", "weight": 102.0},
  {"id": 157,
   "source": "CT24.cz",
   "target": "Svobodné fórum",
   "weight": 104.0},
  {"id": 158, "source": "CT24.cz", "target": "neovlivnicz", "weight": 89.0},
  {"id": 159, "source": "CT24.cz", "target": "EuroZpravy.cz", "weight": 93.0},
  {"id": 160, "source": "CT24.cz", "target": "tyden", "weight": 94.0},
  {"id": 169,
   "source": "Aktualne.cz",
   "target": "Novinky.cz",
   "weight": 138.0},
  {"id": 172,
   "source": "Aktualne.cz",
   "target": "parlamentnilisty.cz",
   "weight": 69.0},
  {"id": 173,
   "source": "Aktualne.cz",
   "target": "denikecho24",
   "weight": 153.0},
  {"id": 174,
   "source": "Aktualne.cz",
   "target": "A2larm",
   "weight": 72.0},
  {"id": 175,
   "source": "Aktualne.cz",
   "target": "radiozurnal",
   "weight": 115.0},
  {"id": 177,
   "source": "Aktualne.cz",
   "target": "Svobodné fórum",
   "weight": 107.0},
  {"id": 178,
   "source": "Aktualne.cz",
   "target": "neovlivnicz",
   "weight": 135.0},
  {"id": 179,
   "source": "Aktualne.cz",
   "target": "EuroZpravy.cz",
   "weight": 69.0},
  {"id": 180, "source": "Aktualne.cz", "target": "tyden", "weight": 116.0},
  {"id": 181, "source": "Aktualne.cz", "target": "denikE15", "weight": 73.0},
  {"id": 183, "source": "Aktualne.cz", "target": "lidovky.cz", "weight": 91.0},
  {"id": 188, "source": "Blesk.cz", "target": "Novinky.cz", "weight": 149.0},
  {"id": 190, "source": "Blesk.cz", "target": "tn.nova", "weight": 128.0},
  {"id": 198, "source": "Blesk.cz", "target": "EuroZpravy.cz", "weight": 98.0},
  {"id": 208, "source": "Novinky.cz", "target": "tn.nova", "weight": 81.0},
  {"id": 209,
   "source": "Novinky.cz",
   "target": "parlamentnilisty.cz",
   "weight": 98.0},
  {"id": 210, "source": "Novinky.cz", "target": "denikecho24", "weight": 80.0},
  {"id": 216,
   "source": "Novinky.cz",
   "target": "EuroZpravy.cz",
   "weight": 90.0},
  {"id": 217, "source": "Novinky.cz", "target": "tyden", "weight": 86.0},
  {"id": 226,
   "source": "AC24.cz",
   "target": "parlamentnilisty.cz",
   "weight": 137.0},
  {"id": 233, "source": "AC24.cz", "target": "EuroZpravy.cz", "weight": 62.0},
  {"id": 238, "source": "AC24.cz", "target": "cz.sputnik", "weight": 69.0},
  {"id": 249, "source": "tn.nova", "target": "EuroZpravy.cz", "weight": 110.0},
  {"id": 258,
   "source": "parlamentnilisty.cz",
   "target": "denikecho24",
   "weight": 100.0},
  {"id": 264,
   "source": "parlamentnilisty.cz",
   "target": "EuroZpravy.cz",
   "weight": 191.0},
  {"id": 265,
   "source": "parlamentnilisty.cz",
   "target": "tyden",
   "weight": 91.0},
  {"id": 269,
   "source": "parlamentnilisty.cz",
   "target": "cz.sputnik",
   "weight": 81.0},
  {"id": 274,
   "source": "denikecho24",
   "target": "radiozurnal",
   "weight": 74.0},
  {"id": 276,
   "source": "denikecho24",
   "target": "Svobodné fórum",
   "weight": 238.0},
  {"id": 277,
   "source": "denikecho24",
   "target": "neovlivnicz",
   "weight": 187.0},
  {"id": 278,
   "source": "denikecho24",
   "target": "EuroZpravy.cz",
   "weight": 77.0},
  {"id": 279, "source": "denikecho24", "target": "tyden", "weight": 84.0},
  {"id": 280, "source": "denikecho24", "target": "denikE15", "weight": 68.0},
  {"id": 294,
   "source": "A2larm",
   "target": "DReferendum",
   "weight": 296.0},
  {"id": 302,
   "source": "radiozurnal",
   "target": "neovlivnicz",
   "weight": 63.0},
  {"id": 309,
   "source": "radiozurnal",
   "target": "zpravy.rozhlas.cz",
   "weight": 70.0},
  {"id": 323,
   "source": "Svobodné fórum",
   "target": "neovlivnicz",
   "weight": 175.0},
  {"id": 342, "source": "EuroZpravy.cz", "target": "tyden", "weight": 81.0}],
 "nodes": [{"id": "denikE15",
   "label": "denikE15",
   "size": 35.0264148,
   "x": -608.36975,
   "y": 60.107567},
  {"id": "radiozurnal",
   "label": "radiozurnal",
   "size": 57.2049049,
   "x": -640.8216,
   "y": -1078.3787},
  {"id": "reflexcz",
   "label": "reflexcz",
   "size": 103.234716,
   "x": 1110.4978,
   "y": 187.06119},
  {"id": "Aktualne.cz",
   "label": "Aktualne.cz",
   "size": 91.74075300000001,
   "x": -387.5376,
   "y": -451.72855},
  {"id": "tydenikrespekt",
   "label": "tydenikrespekt",
   "size": 106.63434600000001,
   "x": 184.3577,
   "y": -1659.9698},
  {"id": "zpravy.rozhlas.cz",
   "label": "zpravy.rozhlas.cz",
   "size": 15.600000000000001,
   "x": -7.4551716,
   "y": -302.2253},
  {"id": "tyden",
   "label": "tyden",
   "size": 39.5322629,
   "x": 41.87068,
   "y": 151.34772},
  {"id": "Blesk.cz",
   "label": "Blesk.cz",
   "size": 89.285482,
   "x": 734.9885,
   "y": 2227.2153},
  {"id": "Novinky.cz",
   "label": "Novinky.cz",
   "size": 85.34622200000001,
   "x": 546.68427,
   "y": 984.33734},
  {"id": "denikecho24",
   "label": "denikecho24",
   "size": 63.59943200000001,
   "x": 381.61008,
   "y": -384.1129},
  {"id": "A2larm",
   "label": "A2larm",
   "size": 59.525284,
   "x": -92.646324,
   "y": -2683.519},
  {"id": "EuroZpravy.cz",
   "label": "EuroZpravy.cz",
   "size": 39.8560383,
   "x": -289.15878,
   "y": 720.3201},
  {"id": "parlamentnilisty.cz",
   "label": "parlamentnilisty.cz",
   "size": 65.94679780000001,
   "x": -831.6715,
   "y": 745.10736},
  {"id": "CT24.cz",
   "label": "CT24.cz",
   "size": 95.221321,
   "x": 448.6409,
   "y": 141.31793},
  {"id": "tn.nova",
   "label": "tn.nova",
   "size": 76.7122642,
   "x": -30.34638,
   "y": 1875.8525},
  {"id": "neovlivnicz",
   "label": "neovlivnicz",
   "size": 44.4428322,
   "x": 581.882,
   "y": -931.11194},
  {"id": "lidovky.cz",
   "label": "lidovky.cz",
   "size": 21.9945271,
   "x": 228.84404,
   "y": -851.4827},
  {"id": "DVTV.cz",
   "label": "DVTV.cz",
   "size": 130.0,
   "x": 942.43994,
   "y": -1880.6361},
  {"id": "cz.sputnik",
   "label": "cz.sputnik",
   "size": 21.1041519,
   "x": -1513.2446,
   "y": 855.95264},
  {"id": "ihned.cz",
   "label": "ihned.cz",
   "size": 97.16396300000001,
   "x": 17.834084,
   "y": -721.2148},
  {"id": "Svobodné fórum",
   "label": "Svobodné fórum",
   "size": 52.213395,
   "x": 791.4347,
   "y": -450.67416},
  {"id": "iDNES.cz",
    "color": "blue",
   "label": "iDNES.cz",
   "size": 103.234716,
   "x": 77.1273,
   "y": 706.74915},
  {"id": "reportermagazin",
   "label": "reportermagazin",
   "size": 100.67150600000001,
   "x": 1446.573,
   "y": -1272.962},
  {"id": "AC24.cz",
   "label": "AC24.cz",
   "size": 78.8437715,
   "x": -2216.9788,
   "y": 1219.0482},
  {"id": "DReferendum",
   "label": "DReferendum",
   "size": 27.9303765,
   "x": -201.6342,
   "y": -2408.5332}]}